\relax 
\providecommand\hyper@newdestlabel[2]{}
\providecommand\HyperFirstAtBeginDocument{\AtBeginDocument}
\HyperFirstAtBeginDocument{\ifx\hyper@anchor\@undefined
\global\let\oldcontentsline\contentsline
\gdef\contentsline#1#2#3#4{\oldcontentsline{#1}{#2}{#3}}
\global\let\oldnewlabel\newlabel
\gdef\newlabel#1#2{\newlabelxx{#1}#2}
\gdef\newlabelxx#1#2#3#4#5#6{\oldnewlabel{#1}{{#2}{#3}}}
\AtEndDocument{\ifx\hyper@anchor\@undefined
\let\contentsline\oldcontentsline
\let\newlabel\oldnewlabel
\fi}
\fi}
\global\let\hyper@last\relax 
\gdef\HyperFirstAtBeginDocument#1{#1}
\providecommand\HyField@AuxAddToFields[1]{}
\providecommand\HyField@AuxAddToCoFields[2]{}
\select@language{italian}
\@writefile{toc}{\select@language{italian}}
\@writefile{lof}{\select@language{italian}}
\@writefile{lot}{\select@language{italian}}
\select@language{italian}
\@writefile{toc}{\select@language{italian}}
\@writefile{lof}{\select@language{italian}}
\@writefile{lot}{\select@language{italian}}
\@writefile{toc}{\contentsline {chapter}{\numberline {1}Analisi Etnografica}{1}{chapter.1}}
\@writefile{lof}{\addvspace {10\p@ }}
\@writefile{lot}{\addvspace {10\p@ }}
\@writefile{toc}{\contentsline {section}{\numberline {1.1}Segmentazione del Target}{1}{section.1.1}}
\@writefile{toc}{\contentsline {section}{\numberline {1.2}User Research}{2}{section.1.2}}
\@writefile{toc}{\contentsline {subsection}{\numberline {1.2.1}Metodi di Market Research}{2}{subsection.1.2.1}}
\@writefile{toc}{\contentsline {subsection}{\numberline {1.2.2}Contextual Inquiry}{3}{subsection.1.2.2}}
\@writefile{toc}{\contentsline {subsection}{\numberline {1.2.3}Task Analysis}{7}{subsection.1.2.3}}
\@writefile{toc}{\contentsline {chapter}{\numberline {2}Valutazione del Sistema}{13}{chapter.2}}
\@writefile{lof}{\addvspace {10\p@ }}
\@writefile{lot}{\addvspace {10\p@ }}
\@writefile{toc}{\contentsline {section}{\numberline {2.1}Expert Usability Review}{13}{section.2.1}}
\@writefile{toc}{\contentsline {subsection}{\numberline {2.1.1}Scelta e Adozione di Linee Guida}{13}{subsection.2.1.1}}
\@writefile{toc}{\contentsline {subsection}{\numberline {2.1.2}Prima Esplorazione del Sistema}{14}{subsection.2.1.2}}
\@writefile{toc}{\contentsline {subsection}{\numberline {2.1.3}Analisi Diretta: Sistema vs Linee Guida}{15}{subsection.2.1.3}}
\@writefile{toc}{\contentsline {paragraph}{}{16}{section*.3}}
\@writefile{toc}{\contentsline {subsection}{\numberline {2.1.4}Analisi Inversa: Linee Guida vs Sistema}{18}{subsection.2.1.4}}
\@writefile{lof}{\contentsline {figure}{\numberline {2.1}{\ignorespaces Sommario dei Risultati}}{18}{figure.2.1}}
\newlabel{fig:Sommario}{{2.1}{18}{Sommario dei Risultati}{figure.2.1}{}}
\@writefile{toc}{\contentsline {subsection}{\numberline {2.1.5}Rilevare e Descrivere un Numero Ragionevole di Errori}{20}{subsection.2.1.5}}
\@writefile{toc}{\contentsline {section}{\numberline {2.2}User Testing}{21}{section.2.2}}
\@writefile{toc}{\contentsline {subsection}{\numberline {2.2.1}Definizione del Protocollo di Testing}{21}{subsection.2.2.1}}
\@writefile{toc}{\contentsline {subsection}{\numberline {2.2.2}Analisi di Dati Soggettivi e Oggettivi}{22}{subsection.2.2.2}}
\@writefile{toc}{\contentsline {subsection}{\numberline {2.2.3}Curve di Urgenza}{42}{subsection.2.2.3}}
\@writefile{lof}{\contentsline {figure}{\numberline {2.2}{\ignorespaces Curve di Urgenza}}{42}{figure.2.2}}
\newlabel{fig:Curv}{{2.2}{42}{Curve di Urgenza}{figure.2.2}{}}
\@writefile{toc}{\contentsline {subsection}{\numberline {2.2.4}Conclusioni ed Indicazioni}{43}{subsection.2.2.4}}
\@writefile{toc}{\contentsline {chapter}{\numberline {3}Valutazione di altri Sistemi}{49}{chapter.3}}
\@writefile{lof}{\addvspace {10\p@ }}
\@writefile{lot}{\addvspace {10\p@ }}
\@writefile{toc}{\contentsline {section}{\numberline {3.1}Analisi di MySolarFamily}{49}{section.3.1}}
\@writefile{toc}{\contentsline {chapter}{\numberline {4}Studio di Fattibilit\IeC {\`a}}{51}{chapter.4}}
\@writefile{lof}{\addvspace {10\p@ }}
\@writefile{lot}{\addvspace {10\p@ }}
\@writefile{toc}{\contentsline {section}{\numberline {4.1}Contesto d'Uso}{51}{section.4.1}}
\@writefile{toc}{\contentsline {section}{\numberline {4.2}Personaggi}{51}{section.4.2}}
\@writefile{toc}{\contentsline {section}{\numberline {4.3}Scenari d'Uso}{56}{section.4.3}}
\@writefile{toc}{\contentsline {chapter}{\numberline {5}Proposta di Intervento}{63}{chapter.5}}
\@writefile{lof}{\addvspace {10\p@ }}
\@writefile{lot}{\addvspace {10\p@ }}
\@writefile{toc}{\contentsline {section}{\numberline {5.1}Blueprint}{65}{section.5.1}}
\@writefile{lof}{\contentsline {figure}{\numberline {5.1}{\ignorespaces BluePrint utente semplice}}{65}{figure.5.1}}
\newlabel{fig:BlueS}{{5.1}{65}{BluePrint utente semplice}{figure.5.1}{}}
\@writefile{lof}{\contentsline {figure}{\numberline {5.2}{\ignorespaces BluePrint utente professionista}}{66}{figure.5.2}}
\newlabel{fig:BlueP}{{5.2}{66}{BluePrint utente professionista}{figure.5.2}{}}
\@writefile{lof}{\contentsline {figure}{\numberline {5.3}{\ignorespaces Legenda}}{66}{figure.5.3}}
\newlabel{fig:BlueLeg2}{{5.3}{66}{Legenda}{figure.5.3}{}}
\@writefile{toc}{\contentsline {section}{\numberline {5.2}Prototipo dell'Interfaccia}{67}{section.5.2}}
\@writefile{lof}{\contentsline {figure}{\numberline {5.4}{\ignorespaces Homepage Utente Semplice}}{67}{figure.5.4}}
\newlabel{fig:HomeS}{{5.4}{67}{Homepage Utente Semplice}{figure.5.4}{}}
\@writefile{lof}{\contentsline {figure}{\numberline {5.5}{\ignorespaces Homepage Utente Professionista}}{67}{figure.5.5}}
\newlabel{fig:HomeP}{{5.5}{67}{Homepage Utente Professionista}{figure.5.5}{}}
\@writefile{toc}{\contentsline {section}{\numberline {5.3}Proposta per il Mobile}{69}{section.5.3}}
\@writefile{lof}{\contentsline {figure}{\numberline {5.6}{\ignorespaces Homepace Utente Semplice Mobile}}{69}{figure.5.6}}
\newlabel{fig:HomeSM}{{5.6}{69}{Homepace Utente Semplice Mobile}{figure.5.6}{}}
\@writefile{lof}{\contentsline {figure}{\numberline {5.7}{\ignorespaces Homepace Utente Professionista Mobile}}{70}{figure.5.7}}
\newlabel{fig:HomePro}{{5.7}{70}{Homepace Utente Professionista Mobile}{figure.5.7}{}}
\@writefile{toc}{\contentsline {chapter}{\numberline {6}Valutazione dell'Intervento}{71}{chapter.6}}
\@writefile{lof}{\addvspace {10\p@ }}
\@writefile{lot}{\addvspace {10\p@ }}
\@writefile{toc}{\contentsline {section}{\numberline {6.1}Ispezione}{71}{section.6.1}}
\@writefile{toc}{\contentsline {subsection}{\numberline {6.1.1}Analisi Diretta}{71}{subsection.6.1.1}}
\@writefile{toc}{\contentsline {subsection}{\numberline {6.1.2}Analisi Inversa}{73}{subsection.6.1.2}}
\@writefile{lof}{\contentsline {figure}{\numberline {6.1}{\ignorespaces Sommario dei Risultati, Seconda Parte}}{74}{figure.6.1}}
\newlabel{fig:Sommario2}{{6.1}{74}{Sommario dei Risultati, Seconda Parte}{figure.6.1}{}}
\@writefile{toc}{\contentsline {subsection}{\numberline {6.1.3}Rilevare Errori Rimanenti}{74}{subsection.6.1.3}}
\@writefile{toc}{\contentsline {section}{\numberline {6.2}User Testing}{75}{section.6.2}}
\@writefile{toc}{\contentsline {subsection}{\numberline {6.2.1}Protocollo di Testing}{75}{subsection.6.2.1}}
\@writefile{toc}{\contentsline {subsection}{\numberline {6.2.2}Risultati Testing}{75}{subsection.6.2.2}}
\@writefile{toc}{\contentsline {subsection}{\numberline {6.2.3}Correzione Errori e Iterazioni Successive}{93}{subsection.6.2.3}}
\@writefile{lof}{\contentsline {figure}{\numberline {6.2}{\ignorespaces Nuova Homepage Utente Semplice}}{94}{figure.6.2}}
\newlabel{fig:HomeS}{{6.2}{94}{Nuova Homepage Utente Semplice}{figure.6.2}{}}
\@writefile{lof}{\contentsline {figure}{\numberline {6.3}{\ignorespaces Nuova Homepage Utente Professionista}}{94}{figure.6.3}}
\newlabel{fig:HomeP}{{6.3}{94}{Nuova Homepage Utente Professionista}{figure.6.3}{}}
\@writefile{toc}{\contentsline {chapter}{\numberline {7}Conclusioni}{95}{chapter.7}}
\@writefile{lof}{\addvspace {10\p@ }}
\@writefile{lot}{\addvspace {10\p@ }}
\@writefile{toc}{\contentsline {section}{\numberline {7.1}Confronto UserFocus}{95}{section.7.1}}
\@writefile{lof}{\contentsline {figure}{\numberline {7.1}{\ignorespaces Sommario dei Risultati}}{96}{figure.7.1}}
\newlabel{fig:Sommario}{{7.1}{96}{Sommario dei Risultati}{figure.7.1}{}}
\@writefile{lof}{\contentsline {figure}{\numberline {7.2}{\ignorespaces Sommario dei Risultati, Seconda Parte}}{96}{figure.7.2}}
\newlabel{fig:Sommario2}{{7.2}{96}{Sommario dei Risultati, Seconda Parte}{figure.7.2}{}}
\@writefile{toc}{\contentsline {section}{\numberline {7.2}Confronto Gradimento SUS}{97}{section.7.2}}
\@writefile{lof}{\contentsline {figure}{\numberline {7.3}{\ignorespaces Confronto Gradimento SUS}}{97}{figure.7.3}}
\newlabel{fig:ConfrontoSUS}{{7.3}{97}{Confronto Gradimento SUS}{figure.7.3}{}}
